{
  "extends": [
    "gitlab>vito-templates/renovate-bot",
    "gitlab>vito-templates/renovate-bot//regexManagers/gitlab-ci-renovate",
    "customManagers:dockerfileVersions"
  ],
  "packageRules": [
    {
      "automerge": true,
      "automergeType": "branch",
      "matchUpdateTypes": ["minor", "patch", "digest"]
    },
    {
      "matchDepNames": ["renovate/renovate"],
      "extends": ["schedule:weekly"]
    }
  ],
  "ignorePaths": [".gitlab/tests/linters/files/", ".gitlab/tests/deployments/files/"]
}
